<svg width="42" height="52" viewBox="0 0 42 52" fill="none" xmlns="http://www.w3.org/2000/svg">
<path d="M26 1H6C4.67392 1 3.40215 1.52678 2.46447 2.46447C1.52678 3.40215 1 4.67392 1 6V46C1 47.3261 1.52678 48.5978 2.46447 49.5355C3.40215 50.4732 4.67392 51 6 51H36C37.3261 51 38.5979 50.4732 39.5355 49.5355C40.4732 48.5978 41 47.3261 41 46V16M26 1L41 16M26 1V16H41M31 28.5H11M31 38.5H11M16 18.5H11" stroke="#1E2023" stroke-linecap="round" stroke-linejoin="round"/>
</svg>
