<svg width="20" height="21" viewBox="0 0 20 21" fill="none" xmlns="http://www.w3.org/2000/svg">
<path d="M5.72171 4.35686C5.53562 4.32977 5.34587 4.36723 5.18403 4.46299H5.17002C4.79455 4.68327 4.45612 4.96061 4.16776 5.28702C3.92746 5.56437 3.7973 5.84472 3.76325 6.11506C3.74323 6.27526 3.75725 6.43746 3.80431 6.59065L3.82233 6.60067C4.09267 7.39466 4.44511 8.15862 4.87565 8.87752C5.43079 9.88727 6.11395 10.8211 6.90819 11.656L6.93222 11.69L6.97027 11.7181L6.9933 11.7451L7.02133 11.7691C7.85911 12.5658 8.79518 13.2522 9.80682 13.8117C10.9633 14.4415 11.6651 14.7389 12.0867 14.863V14.869C12.2098 14.9071 12.322 14.9241 12.4351 14.9241C12.7941 14.8976 13.1339 14.7516 13.4003 14.5096C13.7257 14.2212 14.0011 13.8818 14.2153 13.5043V13.4973C14.4166 13.1168 14.3485 12.7584 14.0581 12.5151C13.4749 12.0055 12.8442 11.5528 12.1748 11.1634C11.7262 10.9201 11.2707 11.0673 11.0864 11.3136L10.6929 11.8102C10.4907 12.0565 10.1242 12.0225 10.1242 12.0225L10.1142 12.0285C7.37978 11.3306 6.64987 8.56212 6.64987 8.56212C6.64987 8.56212 6.61583 8.18565 6.86914 7.99341L7.36176 7.59691C7.59806 7.40467 7.76226 6.9501 7.50895 6.50154C7.12207 5.83147 6.67034 5.20099 6.16026 4.61919C6.04901 4.48226 5.89299 4.389 5.7197 4.35586L5.72171 4.35686ZM10.3425 3.15335C10.2097 3.15335 10.0824 3.2061 9.9885 3.29998C9.89461 3.39387 9.84187 3.5212 9.84187 3.65398C9.84187 3.78675 9.89461 3.91409 9.9885 4.00797C10.0824 4.10186 10.2097 4.1546 10.3425 4.1546C11.6081 4.1546 12.6594 4.56812 13.4914 5.36112C13.919 5.79466 14.2524 6.3083 14.4707 6.87101C14.6899 7.43471 14.7901 8.03647 14.764 8.63922C14.7585 8.77199 14.8059 8.90155 14.8958 8.99937C14.9857 9.0972 15.1109 9.1553 15.2436 9.16087C15.3764 9.16645 15.506 9.11905 15.6038 9.02911C15.7016 8.93917 15.7597 8.81405 15.7653 8.68127C15.7963 7.93983 15.6733 7.20001 15.4038 6.50855C15.1332 5.81382 14.7229 5.18201 14.1983 4.65223L14.1883 4.64222C13.156 3.65598 11.8504 3.15335 10.3425 3.15335Z" fill="white"/>
<path d="M10.3078 4.79952C10.175 4.79952 10.0476 4.85227 9.95376 4.94615C9.85987 5.04004 9.80713 5.16738 9.80713 5.30015C9.80713 5.43293 9.85987 5.56026 9.95376 5.65415C10.0476 5.74803 10.175 5.80078 10.3078 5.80078H10.3248C11.2379 5.86586 11.9028 6.17024 12.3683 6.66987C12.8459 7.18451 13.0932 7.82431 13.0742 8.6153C13.0712 8.74808 13.121 8.87663 13.2127 8.97267C13.3044 9.06872 13.4306 9.12439 13.5633 9.12744C13.6961 9.1305 13.8247 9.08068 13.9207 8.98896C14.0167 8.89723 14.0724 8.77111 14.0755 8.63833C14.0995 7.60003 13.7651 6.70391 13.1023 5.98901V5.98701C12.4244 5.2601 11.4942 4.87562 10.3748 4.80053L10.3578 4.79852L10.3078 4.79952Z" fill="white"/>
<path d="M10.2888 6.47661C10.2218 6.4707 10.1543 6.47835 10.0903 6.4991C10.0263 6.51985 9.96718 6.55328 9.91641 6.5974C9.86564 6.64151 9.82428 6.6954 9.7948 6.75586C9.76532 6.81631 9.74832 6.88208 9.74482 6.94925C9.74132 7.01641 9.75139 7.0836 9.77443 7.14679C9.79747 7.20998 9.833 7.26787 9.87891 7.31703C9.92482 7.36618 9.98017 7.40557 10.0416 7.43286C10.1031 7.46015 10.1695 7.47478 10.2367 7.47586C10.6552 7.49789 10.9226 7.62404 11.0908 7.79326C11.26 7.96347 11.3861 8.23681 11.4092 8.66435C11.4104 8.73153 11.4252 8.79778 11.4526 8.85913C11.48 8.92049 11.5194 8.97571 11.5686 9.02149C11.6178 9.06727 11.6757 9.10268 11.7389 9.12561C11.802 9.14854 11.8692 9.15852 11.9363 9.15496C12.0034 9.1514 12.0691 9.13436 12.1294 9.10487C12.1898 9.07538 12.2436 9.03403 12.2877 8.9833C12.3318 8.93257 12.3652 8.87348 12.3859 8.80957C12.4066 8.74565 12.4143 8.67822 12.4084 8.61128C12.3764 8.01053 12.1881 7.47986 11.8027 7.08937C11.4152 6.69889 10.8875 6.50865 10.2888 6.47661Z" fill="white"/>
<path fill-rule="evenodd" clip-rule="evenodd" d="M4.82285 0.534141C8.00891 -0.178047 11.3129 -0.178047 14.499 0.534141L14.8384 0.609235C15.7698 0.817446 16.6252 1.2798 17.3095 1.94493C17.9939 2.61006 18.4805 3.45191 18.7152 4.37695C19.524 7.56383 19.524 10.9022 18.7152 14.0891C18.4805 15.0142 17.9939 15.856 17.3095 16.5211C16.6252 17.1863 15.7698 17.6486 14.8384 17.8568L14.498 17.9319C12.5025 18.3782 10.4549 18.5463 8.41335 18.4315L5.75702 20.8085C5.65687 20.8982 5.5345 20.9593 5.40266 20.9856C5.27083 21.0118 5.13437 21.0022 5.00753 20.9577C4.88069 20.9132 4.76811 20.8354 4.68156 20.7326C4.59501 20.6297 4.53765 20.5056 4.51546 20.373L4.07591 17.7477C3.23304 17.4854 2.47151 17.0114 1.86411 16.3708C1.25671 15.7303 0.823739 14.9447 0.606569 14.0891C-0.20219 10.9022 -0.20219 7.56383 0.606569 4.37695C0.841283 3.45191 1.32787 2.61006 2.01226 1.94493C2.69666 1.2798 3.55206 0.817446 4.48342 0.609235L4.82285 0.534141ZM14.1716 1.99897C11.2011 1.33495 8.1207 1.33495 5.15026 1.99897L4.80983 2.07507C4.14973 2.22291 3.54351 2.55082 3.05851 3.02239C2.57352 3.49395 2.22871 4.09072 2.06239 4.74642C1.31517 7.69083 1.31517 10.7752 2.06239 13.7197C2.22879 14.3755 2.57374 14.9723 3.05893 15.4439C3.54412 15.9155 4.15054 16.2433 4.81083 16.391L4.90095 16.411C5.04672 16.4436 5.17946 16.519 5.2822 16.6274C5.38493 16.7358 5.45299 16.8725 5.47767 17.0198L5.77204 18.78L7.64638 17.1029C7.72123 17.0357 7.80881 16.9843 7.90393 16.9516C7.99904 16.9189 8.09975 16.9057 8.20008 16.9126C10.2016 17.0546 12.2132 16.9045 14.1716 16.4671L14.511 16.391C15.1713 16.2433 15.7777 15.9155 16.2629 15.4439C16.7481 14.9723 17.093 14.3755 17.2594 13.7197C18.0064 10.776 18.0064 7.6911 17.2594 4.74642C17.093 4.09059 16.7481 3.49374 16.2629 3.02216C15.7777 2.55058 15.1713 2.22275 14.511 2.07507L14.1716 1.99897Z" fill="white"/>
</svg>
